…
Declining bee populations from pesticides, habitat loss, climate change, and disease is alarming. My wariness of stings now mixes with awe at bees’ resilience. Though stings briefly hurt, I accept the discomfort knowing it connects me to the expansive pollination systems bees make possible.

My goal is to raise awareness of threats facing honeybees and their indispensable pollination services through data-driven storytelling.

Let’s begin by uploading the data. The data particular comes from U.S Department of Agriculture, but tidytuesday github has made it easier to load and extract.

```toml
colony <- readr::read_csv('https://raw.githubusercontent.com/rfordatascience/tidytuesday/master/data/2022/2022-01-11/colony.csv')
stressor <- readr::read_csv('https://raw.githubusercontent.com/rfordatascience/tidytuesday/master/data/2022/2022-01-11/stressor.csv'
```
We will be implementing two various data sets.

The Colony data set, focuses on quantifying bee colonies directly, provides colony count and change metrics by year, month and state. Overall captures trajectory of total bee colonies and population changes.
```toml
# A tibble: 1,222 × 10
    year months        state     colony_n colony_max colony_lost colony_lost_pct
   <dbl> <chr>         <chr>        <dbl>      <dbl>       <dbl>           <dbl>
 1  2015 January-March Alabama       7000       7000        1800              26
 2  2015 January-March Arizona      35000      35000        4600              13
 3  2015 January-March Arkansas     13000      14000        1500              11
 4  2015 January-March Californ…  1440000    1690000      255000              15
 5  2015 January-March Colorado      3500      12500        1500              12
 6  2015 January-March Connecti…     3900       3900         870              22
 7  2015 January-March Florida     305000     315000       42000              13
 8  2015 January-March Georgia     104000     105000       14500              14
 9  2015 January-March Hawaii       10500      10500         380               4
10  2015 January-March Idaho        81000      88000        3700               4
# ℹ 1,212 more rows
# ℹ 3 more variables: colony_added <dbl>, colony_reno <dbl>,
#   colony_reno_pct <dbl>
```
The stressor data set, focuses on external stress factors affecting be colonies -pesticides, diseases, climate etc. It links stressors to time frames and locations, as well as the impacts in percentage of colonies affect per quarter.
```toml
# A tibble: 7,332 × 5
    year months        state   stressor              stress_pct
   <dbl> <chr>         <chr>   <chr>                      <dbl>
 1  2015 January-March Alabama Varroa mites                10  
 2  2015 January-March Alabama Other pests/parasites        5.4
 3  2015 January-March Alabama Disesases                   NA  
 4  2015 January-March Alabama Pesticides                   2.2
 5  2015 January-March Alabama Other                        9.1
 6  2015 January-March Alabama Unknown                      9.4
 7  2015 January-March Arizona Varroa mites                26.9
 8  2015 January-March Arizona Other pests/parasites       20.5
 9  2015 January-March Arizona Disesases                    0.1
10  2015 January-March Arizona Pesticides                  NA  
# ℹ 7,322 more rows
```
…
